<?xml version="1.0" encoding="UTF-8" standalone="no"?>
<!-- Created with Inkscape (http://www.inkscape.org/) -->

<svg
   xmlns:dc="http://purl.org/dc/elements/1.1/"
   xmlns:cc="http://creativecommons.org/ns#"
   xmlns:rdf="http://www.w3.org/1999/02/22-rdf-syntax-ns#"
   xmlns:svg="http://www.w3.org/2000/svg"
   xmlns="http://www.w3.org/2000/svg"
   xmlns:sodipodi="http://sodipodi.sourceforge.net/DTD/sodipodi-0.dtd"
   xmlns:inkscape="http://www.inkscape.org/namespaces/inkscape"
   width="559.84253"
   height="407.48032"
   id="svg2"
   sodipodi:version="0.32"
   inkscape:version="0.48.2 r9819"
   version="1.0"
   sodipodi:docname="montessori.svg"
   inkscape:output_extension="org.inkscape.output.svg.inkscape"
   inkscape:export-filename="/mnt/sekhmet/srv/lm/public/base/stationery/prospectus/1-src/reverse/svg-reverse/2-png-300dpi/around-and-about.png"
   inkscape:export-xdpi="300.04346"
   inkscape:export-ydpi="300.04346">
  <defs
     id="defs4">
    <inkscape:path-effect
       is_visible="true"
       id="path-effect4342"
       effect="spiro" />
    <inkscape:path-effect
       effect="spiro"
       id="path-effect4336"
       is_visible="true" />
    <inkscape:perspective
       sodipodi:type="inkscape:persp3d"
       inkscape:vp_x="0 : 526.18109 : 1"
       inkscape:vp_y="0 : 1000 : 0"
       inkscape:vp_z="744.09448 : 526.18109 : 1"
       inkscape:persp3d-origin="372.04724 : 350.78739 : 1"
       id="perspective10" />
    <inkscape:perspective
       id="perspective3532"
       inkscape:persp3d-origin="372.04724 : 350.78739 : 1"
       inkscape:vp_z="744.09448 : 526.18109 : 1"
       inkscape:vp_y="0 : 1000 : 0"
       inkscape:vp_x="0 : 526.18109 : 1"
       sodipodi:type="inkscape:persp3d" />
    <inkscape:perspective
       id="perspective4444"
       inkscape:persp3d-origin="0.5 : 0.33333333 : 1"
       inkscape:vp_z="1 : 0.5 : 1"
       inkscape:vp_y="0 : 1000 : 0"
       inkscape:vp_x="0 : 0.5 : 1"
       sodipodi:type="inkscape:persp3d" />
    <inkscape:perspective
       id="perspective4444-0"
       inkscape:persp3d-origin="0.5 : 0.33333333 : 1"
       inkscape:vp_z="1 : 0.5 : 1"
       inkscape:vp_y="0 : 1000 : 0"
       inkscape:vp_x="0 : 0.5 : 1"
       sodipodi:type="inkscape:persp3d" />
    <inkscape:perspective
       id="perspective4444-6"
       inkscape:persp3d-origin="0.5 : 0.33333333 : 1"
       inkscape:vp_z="1 : 0.5 : 1"
       inkscape:vp_y="0 : 1000 : 0"
       inkscape:vp_x="0 : 0.5 : 1"
       sodipodi:type="inkscape:persp3d" />
    <inkscape:perspective
       id="perspective4631"
       inkscape:persp3d-origin="0.5 : 0.33333333 : 1"
       inkscape:vp_z="1 : 0.5 : 1"
       inkscape:vp_y="0 : 1000 : 0"
       inkscape:vp_x="0 : 0.5 : 1"
       sodipodi:type="inkscape:persp3d" />
    <inkscape:perspective
       id="perspective4722"
       inkscape:persp3d-origin="0.5 : 0.33333333 : 1"
       inkscape:vp_z="1 : 0.5 : 1"
       inkscape:vp_y="0 : 1000 : 0"
       inkscape:vp_x="0 : 0.5 : 1"
       sodipodi:type="inkscape:persp3d" />
    <inkscape:perspective
       id="perspective4813"
       inkscape:persp3d-origin="0.5 : 0.33333333 : 1"
       inkscape:vp_z="1 : 0.5 : 1"
       inkscape:vp_y="0 : 1000 : 0"
       inkscape:vp_x="0 : 0.5 : 1"
       sodipodi:type="inkscape:persp3d" />
    <inkscape:perspective
       id="perspective4904"
       inkscape:persp3d-origin="0.5 : 0.33333333 : 1"
       inkscape:vp_z="1 : 0.5 : 1"
       inkscape:vp_y="0 : 1000 : 0"
       inkscape:vp_x="0 : 0.5 : 1"
       sodipodi:type="inkscape:persp3d" />
    <inkscape:perspective
       id="perspective4934"
       inkscape:persp3d-origin="0.5 : 0.33333333 : 1"
       inkscape:vp_z="1 : 0.5 : 1"
       inkscape:vp_y="0 : 1000 : 0"
       inkscape:vp_x="0 : 0.5 : 1"
       sodipodi:type="inkscape:persp3d" />
    <inkscape:perspective
       id="perspective4964"
       inkscape:persp3d-origin="0.5 : 0.33333333 : 1"
       inkscape:vp_z="1 : 0.5 : 1"
       inkscape:vp_y="0 : 1000 : 0"
       inkscape:vp_x="0 : 0.5 : 1"
       sodipodi:type="inkscape:persp3d" />
    <inkscape:perspective
       id="perspective4964-1"
       inkscape:persp3d-origin="0.5 : 0.33333333 : 1"
       inkscape:vp_z="1 : 0.5 : 1"
       inkscape:vp_y="0 : 1000 : 0"
       inkscape:vp_x="0 : 0.5 : 1"
       sodipodi:type="inkscape:persp3d" />
    <inkscape:perspective
       id="perspective3666"
       inkscape:persp3d-origin="0.5 : 0.33333333 : 1"
       inkscape:vp_z="1 : 0.5 : 1"
       inkscape:vp_y="0 : 1000 : 0"
       inkscape:vp_x="0 : 0.5 : 1"
       sodipodi:type="inkscape:persp3d" />
    <inkscape:perspective
       id="perspective2884"
       inkscape:persp3d-origin="0.5 : 0.33333333 : 1"
       inkscape:vp_z="1 : 0.5 : 1"
       inkscape:vp_y="0 : 1000 : 0"
       inkscape:vp_x="0 : 0.5 : 1"
       sodipodi:type="inkscape:persp3d" />
    <inkscape:perspective
       id="perspective2826"
       inkscape:persp3d-origin="0.5 : 0.33333333 : 1"
       inkscape:vp_z="1 : 0.5 : 1"
       inkscape:vp_y="0 : 1000 : 0"
       inkscape:vp_x="0 : 0.5 : 1"
       sodipodi:type="inkscape:persp3d" />
  </defs>
  <sodipodi:namedview
     id="base"
     pagecolor="#ffffff"
     bordercolor="#666666"
     borderopacity="1.0"
     gridtolerance="10"
     guidetolerance="10"
     objecttolerance="10"
     inkscape:pageopacity="0.0"
     inkscape:pageshadow="2"
     inkscape:zoom="1.4142136"
     inkscape:cx="314.77167"
     inkscape:cy="175.73309"
     inkscape:document-units="mm"
     inkscape:current-layer="layer1"
     showgrid="true"
     units="mm"
     inkscape:snap-bbox="true"
     inkscape:bbox-paths="true"
     inkscape:bbox-nodes="true"
     inkscape:object-nodes="true"
     inkscape:object-paths="true"
     showguides="true"
     inkscape:guide-bbox="true"
     inkscape:window-width="1920"
     inkscape:window-height="996"
     inkscape:window-x="0"
     inkscape:window-y="30"
     inkscape:window-maximized="1"
     inkscape:snap-global="true">
    <sodipodi:guide
       orientation="0,1"
       position="0,0"
       id="guide3157" />
    <sodipodi:guide
       orientation="0,1"
       position="0,354.33071"
       id="guide3159" />
    <sodipodi:guide
       orientation="1,0"
       position="0,0"
       id="guide3161" />
    <sodipodi:guide
       orientation="1,0"
       position="506.69291,0"
       id="guide3163" />
    <sodipodi:guide
       orientation="0,1"
       position="70.710678,17.716535"
       id="guide3167" />
    <sodipodi:guide
       orientation="1,0"
       position="17.716535,0"
       id="guide3169" />
    <sodipodi:guide
       orientation="0,1"
       position="0,354.33071"
       id="guide3548" />
    <sodipodi:guide
       orientation="0,1"
       position="125,35.433071"
       id="guide3905" />
    <sodipodi:guide
       orientation="0,1"
       position="0,407.48031"
       id="guide2866" />
    <sodipodi:guide
       orientation="0,1"
       position="0,389.76378"
       id="guide2868" />
    <sodipodi:guide
       orientation="0,1"
       position="0,372.04724"
       id="guide2870" />
    <sodipodi:guide
       orientation="1,0"
       position="35.433071,0"
       id="guide3646" />
    <sodipodi:guide
       orientation="1,0"
       position="559.84252,0"
       id="guide3648" />
    <sodipodi:guide
       orientation="1,0"
       position="542.12598,0"
       id="guide3650" />
    <sodipodi:guide
       orientation="1,0"
       position="524.40945,0"
       id="guide3654" />
    <sodipodi:guide
       orientation="0,1"
       position="0,53.149606"
       id="guide3685" />
    <sodipodi:guide
       orientation="1,0"
       position="53.149606,0"
       id="guide3687" />
    <sodipodi:guide
       orientation="1,0"
       position="271.06299,0"
       id="guide4157" />
    <sodipodi:guide
       orientation="1,0"
       position="288.77953,0"
       id="guide4159" />
  </sodipodi:namedview>
  <metadata
     id="metadata7">
    <rdf:RDF>
      <cc:Work
         rdf:about="">
        <dc:format>image/svg+xml</dc:format>
        <dc:type
           rdf:resource="http://purl.org/dc/dcmitype/StillImage" />
        <dc:title></dc:title>
      </cc:Work>
    </rdf:RDF>
  </metadata>
  <g
     inkscape:label="Layer 1"
     inkscape:groupmode="layer"
     id="layer1"
     transform="translate(0,53.149504)">
    <rect
       style="fill:#ffffff;fill-opacity:1;stroke:none"
       id="rect2868"
       width="473.03149"
       height="318.89764"
       x="17.716524"
       y="17.716627" />
    <g
       id="g3546"
       transform="translate(-17.716527,17.716601)">
      <rect
         style="fill:#438d52;fill-opacity:1;stroke:none"
         id="rect2872"
         width="560.63464"
         height="407.48032"
         x="17.716522"
         y="-70.866089" />
      <rect
         style="fill:#ffffff;fill-opacity:1;stroke:none"
         id="rect3656"
         width="488.97638"
         height="336.61417"
         x="53.149597"
         y="-35.433029" />
      <g
         id="g3655"
         transform="translate(0.23501208,-2.9589561e-5)">
        <g
           id="g3627">
          <path
             transform="translate(17.481514,-70.866077)"
             id="path3621"
             d="m 17.716535,407.48032 4e-6,-8.85827"
             style="fill:none;stroke:#ffffff;stroke-width:0.5;stroke-linecap:butt;stroke-linejoin:miter;stroke-miterlimit:4;stroke-opacity:1;stroke-dasharray:none"
             sodipodi:nodetypes="cc"
             inkscape:connector-curvature="0" />
          <path
             transform="translate(17.481514,-70.866077)"
             id="path3625"
             d="m 0,389.76378 8.8582677,0"
             style="fill:none;stroke:#ffffff;stroke-width:0.5;stroke-linecap:butt;stroke-linejoin:miter;stroke-miterlimit:4;stroke-opacity:1;stroke-dasharray:none"
             sodipodi:nodetypes="cc"
             inkscape:connector-curvature="0" />
        </g>
        <g
           id="g3635">
          <path
             sodipodi:nodetypes="cc"
             transform="translate(17.481514,-70.866077)"
             id="path3631"
             d="m 17.716535,6.1621094e-6 0,8.8582600378906"
             style="fill:none;stroke:#ffffff;stroke-width:0.5;stroke-linecap:butt;stroke-linejoin:miter;stroke-miterlimit:4;stroke-opacity:1;stroke-dasharray:none"
             inkscape:connector-curvature="0" />
          <path
             sodipodi:nodetypes="cc"
             transform="translate(17.481514,-70.866077)"
             id="path3633"
             d="m 0,17.716536 8.8582677,0"
             style="fill:none;stroke:#ffffff;stroke-width:0.5;stroke-linecap:butt;stroke-linejoin:miter;stroke-miterlimit:4;stroke-opacity:1;stroke-dasharray:none"
             inkscape:connector-curvature="0" />
        </g>
        <g
           id="g3651">
          <path
             sodipodi:nodetypes="cc"
             transform="translate(17.481514,-70.866077)"
             id="path3639"
             d="m 542.12598,6.1621094e-6 0,8.8582600378906"
             style="fill:none;stroke:#ffffff;stroke-width:0.5;stroke-linecap:butt;stroke-linejoin:miter;stroke-miterlimit:4;stroke-opacity:1;stroke-dasharray:none"
             inkscape:connector-curvature="0" />
          <path
             sodipodi:nodetypes="cc"
             transform="translate(17.481514,-70.866077)"
             id="path3641"
             d="m 550.98425,17.716536 8.85827,4e-6"
             style="fill:none;stroke:#ffffff;stroke-width:0.5;stroke-linecap:butt;stroke-linejoin:miter;stroke-miterlimit:4;stroke-opacity:1;stroke-dasharray:none"
             inkscape:connector-curvature="0" />
        </g>
        <g
           id="g3647">
          <path
             sodipodi:nodetypes="cc"
             transform="translate(17.481514,-70.866077)"
             id="path3643"
             d="m 542.12598,407.48032 0,-8.85827"
             style="fill:none;stroke:#ffffff;stroke-width:0.5;stroke-linecap:butt;stroke-linejoin:miter;stroke-miterlimit:4;stroke-opacity:1;stroke-dasharray:none"
             inkscape:connector-curvature="0" />
          <path
             sodipodi:nodetypes="cc"
             transform="translate(17.481514,-70.866077)"
             id="path3645"
             d="m 559.84252,389.76378 -8.85827,0"
             style="fill:none;stroke:#ffffff;stroke-width:0.5;stroke-linecap:butt;stroke-linejoin:miter;stroke-miterlimit:4;stroke-opacity:1;stroke-dasharray:none"
             inkscape:connector-curvature="0" />
        </g>
      </g>
    </g>
    <flowRoot
       xml:space="preserve"
       id="flowRoot3848"
       style="font-size:12px;font-style:normal;font-variant:normal;font-weight:normal;font-stretch:normal;text-align:justify;line-height:129.99999523%;letter-spacing:0px;word-spacing:0px;writing-mode:lr-tb;text-anchor:start;fill:#000000;fill-opacity:1;stroke:none;font-family:Garamond Premier Pro;-inkscape-font-specification:Garamond Premier Pro"
       transform="translate(-1.3204475,-226.18815)"><flowRegion
         id="flowRegion3850"><rect
           id="rect3852"
           width="217.91338"
           height="318.89764"
           x="54.470055"
           y="226.18825"
           style="font-size:12px;font-style:normal;font-variant:normal;font-weight:normal;font-stretch:normal;text-align:justify;line-height:129.99999523%;writing-mode:lr-tb;text-anchor:start;font-family:Garamond Premier Pro;-inkscape-font-specification:Garamond Premier Pro" /></flowRegion><flowPara
         style="font-size:12.5px;font-style:normal;font-variant:normal;font-weight:normal;font-stretch:normal;text-align:justify;line-height:110.00000238%;writing-mode:lr-tb;text-anchor:start;font-family:Garamond Premier Pro;-inkscape-font-specification:Garamond Premier Pro"
         id="flowPara4548"><flowSpan
   style="font-weight:bold"
   id="flowSpan3096">Maria Montessori, and her ‘Children’s House.’</flowSpan>  The first woman to graduate from the University of Rome’s medical school, Dr. Maria Montessori in the early 1900s began researching the French ‘scientific’ approaches to teaching ‘uneducable’ children.  Generalizing these insights, her ‘Children’s House’ opened in 1907 using similar tools for ordinary children.  Her philosophies, becoming over the next half-century the ‘Montessori method,’ followed this initial discovery of these autodidactic materials.</flowPara><flowPara
         style="font-size:12.5px;font-style:normal;font-variant:normal;font-weight:normal;font-stretch:normal;text-align:justify;line-height:110.00000238%;writing-mode:lr-tb;text-anchor:start;font-family:Garamond Premier Pro;-inkscape-font-specification:Garamond Premier Pro"
         id="flowPara3094" /><flowPara
         style="font-size:12.5px;font-style:normal;font-variant:normal;font-weight:normal;font-stretch:normal;text-align:justify;line-height:110.00000238%;writing-mode:lr-tb;text-anchor:start;font-family:Garamond Premier Pro;-inkscape-font-specification:Garamond Premier Pro"
         id="flowPara3092"><flowSpan
   style="font-weight:bold"
   id="flowSpan3098">Theory.</flowSpan>  Montessori’s principal insight was that children are not merely ‘small adults’: they have distinct and different thought processes and desires; what we may call play is a young child’s work.  The role of the educator is to provide the child with the opportunity to fulfil their desire to learn, both academically and socially.</flowPara><flowPara
         style="font-size:12.5px;font-style:normal;font-variant:normal;font-weight:normal;font-stretch:normal;text-align:justify;line-height:110.00000238%;writing-mode:lr-tb;text-anchor:start;font-family:Garamond Premier Pro;-inkscape-font-specification:Garamond Premier Pro"
         id="flowPara3113">The Montessori method is split into five ‘areas’.</flowPara></flowRoot>    <flowRoot
       transform="translate(234.41078,-225.58219)"
       style="font-size:12px;font-style:normal;font-variant:normal;font-weight:normal;font-stretch:normal;text-align:justify;line-height:129.99999523%;letter-spacing:0px;word-spacing:0px;writing-mode:lr-tb;text-anchor:start;fill:#000000;fill-opacity:1;stroke:none;font-family:Garamond Premier Pro;-inkscape-font-specification:Garamond Premier Pro"
       id="flowRoot4562"
       xml:space="preserve"><flowRegion
         id="flowRegion4564"><rect
           style="font-size:12px;font-style:normal;font-variant:normal;font-weight:normal;font-stretch:normal;text-align:justify;line-height:129.99999523%;writing-mode:lr-tb;text-anchor:start;font-family:Garamond Premier Pro;-inkscape-font-specification:Garamond Premier Pro"
           y="225.58229"
           x="54.368752"
           height="318.89761"
           width="217.91339"
           id="rect4566" /></flowRegion><flowPara
         style="font-size:12.5px;font-style:normal;font-variant:normal;font-weight:normal;font-stretch:normal;text-align:justify;line-height:110.00000238%;writing-mode:lr-tb;text-anchor:start;font-family:Garamond Premier Pro;-inkscape-font-specification:Garamond Premier Pro"
         id="flowPara4585">The Practical Life area improves motor control, developing the pincer grip which is a prerequisite of writing.  The Sensorial area refines the senses, again preparing for language, and also for maths, serializing length and other physical characteristics.  The Maths area provides numerical concepts in concrete form, using beads and spindles.  The Language area teaches letters, then their phonetic sounds, then builds words.  The Cultural area extends the child’s understanding far beyond the classroom.</flowPara><flowPara
         style="font-size:12.5px;font-style:normal;font-variant:normal;font-weight:normal;font-stretch:normal;text-align:justify;line-height:110.00000238%;writing-mode:lr-tb;text-anchor:start;font-family:Garamond Premier Pro;-inkscape-font-specification:Garamond Premier Pro"
         id="flowPara3109" /><flowPara
         style="font-size:12.5px;font-style:normal;font-variant:normal;font-weight:normal;font-stretch:normal;text-align:justify;line-height:110.00000238%;writing-mode:lr-tb;text-anchor:start;font-family:Garamond Premier Pro;-inkscape-font-specification:Garamond Premier Pro"
         id="flowPara3107"><flowSpan
   style="font-weight:bold"
   id="flowSpan3115">Global recognition.</flowSpan>  The Montessori movement, gaining pace only after her death in 1952, is diverse.  Tens of thousands of schools globally claim Montessori as a guiding principle.  Outside of these, many or most modern national curricula, and the home-schooling community (from which founder Gaynor Sloan started), show the influence of Montessori.</flowPara></flowRoot>  </g>
</svg>
