<?xml version="1.0" encoding="UTF-8" standalone="no"?>
<!-- Created with Inkscape (http://www.inkscape.org/) -->

<svg
   xmlns:dc="http://purl.org/dc/elements/1.1/"
   xmlns:cc="http://creativecommons.org/ns#"
   xmlns:rdf="http://www.w3.org/1999/02/22-rdf-syntax-ns#"
   xmlns:svg="http://www.w3.org/2000/svg"
   xmlns="http://www.w3.org/2000/svg"
   xmlns:xlink="http://www.w3.org/1999/xlink"
   xmlns:sodipodi="http://sodipodi.sourceforge.net/DTD/sodipodi-0.dtd"
   xmlns:inkscape="http://www.inkscape.org/namespaces/inkscape"
   width="559.84253"
   height="407.48032"
   id="svg2"
   sodipodi:version="0.32"
   inkscape:version="0.47 r22583"
   version="1.0"
   sodipodi:docname="an-introduction.svg"
   inkscape:output_extension="org.inkscape.output.svg.inkscape"
   inkscape:export-filename="/mnt/sekhmet/srv/lm/public/base/stationery/prospectus/1-src/obverse/2-png/2009-10.png"
   inkscape:export-xdpi="300"
   inkscape:export-ydpi="300">
  <defs
     id="defs4">
    <inkscape:perspective
       sodipodi:type="inkscape:persp3d"
       inkscape:vp_x="0 : 526.18109 : 1"
       inkscape:vp_y="0 : 1000 : 0"
       inkscape:vp_z="744.09448 : 526.18109 : 1"
       inkscape:persp3d-origin="372.04724 : 350.78739 : 1"
       id="perspective10" />
    <inkscape:perspective
       id="perspective3532"
       inkscape:persp3d-origin="372.04724 : 350.78739 : 1"
       inkscape:vp_z="744.09448 : 526.18109 : 1"
       inkscape:vp_y="0 : 1000 : 0"
       inkscape:vp_x="0 : 526.18109 : 1"
       sodipodi:type="inkscape:persp3d" />
  </defs>
  <sodipodi:namedview
     id="base"
     pagecolor="#ffffff"
     bordercolor="#666666"
     borderopacity="1.0"
     gridtolerance="10"
     guidetolerance="10"
     objecttolerance="10"
     inkscape:pageopacity="0.0"
     inkscape:pageshadow="2"
     inkscape:zoom="0.7"
     inkscape:cx="423.33339"
     inkscape:cy="369.64494"
     inkscape:document-units="mm"
     inkscape:current-layer="g5143"
     showgrid="true"
     units="mm"
     inkscape:snap-bbox="true"
     inkscape:bbox-paths="true"
     inkscape:bbox-nodes="true"
     inkscape:object-nodes="true"
     inkscape:object-paths="true"
     showguides="true"
     inkscape:guide-bbox="true"
     inkscape:window-width="1440"
     inkscape:window-height="852"
     inkscape:window-x="0"
     inkscape:window-y="0"
     inkscape:window-maximized="1">
    <sodipodi:guide
       orientation="0,1"
       position="0,0"
       id="guide3157" />
    <sodipodi:guide
       orientation="0,1"
       position="0,354.33071"
       id="guide3159" />
    <sodipodi:guide
       orientation="1,0"
       position="0,0"
       id="guide3161" />
    <sodipodi:guide
       orientation="1,0"
       position="506.69291,0"
       id="guide3163" />
    <sodipodi:guide
       orientation="0,1"
       position="0,372.04724"
       id="guide3165" />
    <sodipodi:guide
       orientation="0,1"
       position="70.710678,17.716535"
       id="guide3167" />
    <sodipodi:guide
       orientation="1,0"
       position="17.716535,0"
       id="guide3169" />
    <sodipodi:guide
       orientation="1,0"
       position="524.40945,0"
       id="guide3171" />
    <sodipodi:guide
       orientation="0,1"
       position="0,389.76378"
       id="guide3548" />
    <sodipodi:guide
       orientation="1,0"
       position="542.12598,0"
       id="guide3550" />
    <sodipodi:guide
       orientation="1,0"
       position="559.84252,0"
       id="guide2829" />
    <sodipodi:guide
       orientation="0,1"
       position="0,407.48031"
       id="guide2831" />
    <sodipodi:guide
       orientation="1,0"
       position="35.433071,0"
       id="guide2833" />
    <sodipodi:guide
       orientation="0,1"
       position="0,35.433071"
       id="guide3607" />
    <sodipodi:guide
       orientation="0,1"
       position="0,53.149606"
       id="guide3609" />
    <sodipodi:guide
       orientation="1,0"
       position="53.149606,0"
       id="guide3611" />
    <sodipodi:guide
       orientation="0,1"
       position="0,398.62205"
       id="guide3613" />
    <sodipodi:guide
       orientation="1,0"
       position="8.8582677,0"
       id="guide3615" />
    <sodipodi:guide
       orientation="1,0"
       position="550.98425,0"
       id="guide3617" />
    <sodipodi:guide
       orientation="0,1"
       position="0,8.8582677"
       id="guide3619" />
  </sodipodi:namedview>
  <metadata
     id="metadata7">
    <rdf:RDF>
      <cc:Work
         rdf:about="">
        <dc:format>image/svg+xml</dc:format>
        <dc:type
           rdf:resource="http://purl.org/dc/dcmitype/StillImage" />
        <dc:title />
      </cc:Work>
    </rdf:RDF>
  </metadata>
  <g
     inkscape:label="Layer 1"
     inkscape:groupmode="layer"
     id="layer1"
     transform="translate(0,53.149504)">
    <g
       id="g5143"
       transform="translate(-17.481514,17.716573)">
      <rect
         style="opacity:1;fill:#000000;fill-opacity:1;stroke:none"
         id="rect2827"
         width="559.84253"
         height="407.48032"
         x="17.481514"
         y="-70.866074" />
      <image
         sodipodi:absref="/mnt/lm/public/base/stationery/prospectus/august/obverse/2-svg/../1-png/an-introduction.png"
         xlink:href="../1-png/an-introduction.png"
         width="488.97638"
         height="336.6142"
         id="image3534"
         x="52.914585"
         y="-35.433014" />
      <text
         id="text3538"
         y="300.37115"
         x="546.55127"
         style="font-size:40px;font-style:normal;font-variant:normal;font-weight:normal;font-stretch:normal;fill:#000000;fill-opacity:1;stroke:none;font-family:Odyssee Md ITC TT;-inkscape-font-specification:Odyssee Md ITC TT"
         xml:space="preserve"><tspan
           id="tspan3546"
           style="font-size:45px;font-style:italic;font-variant:normal;font-weight:normal;font-stretch:normal;text-align:end;text-anchor:end;font-family:Garamond Premier Pro;-inkscape-font-specification:Garamond Premier Pro Italic"
           y="300.37115"
           x="546.55127"
           sodipodi:role="line">An introduction.</tspan></text>
      <g
         id="g3655">
        <g
           id="g3627">
          <path
             sodipodi:nodetypes="cc"
             style="fill:none;stroke:#ffffff;stroke-width:0.5;stroke-linecap:butt;stroke-linejoin:miter;stroke-opacity:1;stroke-miterlimit:4;stroke-dasharray:none"
             d="m 17.716535,407.48032 4e-6,-8.85827"
             id="path3621"
             transform="translate(17.481514,-70.866077)" />
          <path
             sodipodi:nodetypes="cc"
             style="fill:none;stroke:#ffffff;stroke-width:0.5;stroke-linecap:butt;stroke-linejoin:miter;stroke-opacity:1;stroke-miterlimit:4;stroke-dasharray:none"
             d="m 0,389.76378 8.8582677,0"
             id="path3625"
             transform="translate(17.481514,-70.866077)" />
        </g>
        <g
           id="g3635">
          <path
             style="fill:none;stroke:#ffffff;stroke-width:0.5;stroke-linecap:butt;stroke-linejoin:miter;stroke-opacity:1;stroke-miterlimit:4;stroke-dasharray:none"
             d="m 17.716535,6.1621094e-6 0,8.8582600378906"
             id="path3631"
             transform="translate(17.481514,-70.866077)"
             sodipodi:nodetypes="cc" />
          <path
             style="fill:none;stroke:#ffffff;stroke-width:0.5;stroke-linecap:butt;stroke-linejoin:miter;stroke-opacity:1;stroke-miterlimit:4;stroke-dasharray:none"
             d="m 0,17.716536 8.8582677,0"
             id="path3633"
             transform="translate(17.481514,-70.866077)"
             sodipodi:nodetypes="cc" />
        </g>
        <g
           id="g3651">
          <path
             style="fill:none;stroke:#ffffff;stroke-width:0.5;stroke-linecap:butt;stroke-linejoin:miter;stroke-opacity:1;stroke-miterlimit:4;stroke-dasharray:none"
             d="m 542.12598,6.1621094e-6 0,8.8582600378906"
             id="path3639"
             transform="translate(17.481514,-70.866077)"
             sodipodi:nodetypes="cc" />
          <path
             style="fill:none;stroke:#ffffff;stroke-width:0.5;stroke-linecap:butt;stroke-linejoin:miter;stroke-opacity:1;stroke-miterlimit:4;stroke-dasharray:none"
             d="m 550.98425,17.716536 8.85827,4e-6"
             id="path3641"
             transform="translate(17.481514,-70.866077)"
             sodipodi:nodetypes="cc" />
        </g>
        <g
           id="g3647">
          <path
             style="fill:none;stroke:#ffffff;stroke-width:0.5;stroke-linecap:butt;stroke-linejoin:miter;stroke-opacity:1;stroke-miterlimit:4;stroke-dasharray:none"
             d="m 542.12598,407.48032 0,-8.85827"
             id="path3643"
             transform="translate(17.481514,-70.866077)"
             sodipodi:nodetypes="cc" />
          <path
             style="fill:none;stroke:#ffffff;stroke-width:0.5;stroke-linecap:butt;stroke-linejoin:miter;stroke-opacity:1;stroke-miterlimit:4;stroke-dasharray:none"
             d="m 559.84252,389.76378 -8.85827,0"
             id="path3645"
             transform="translate(17.481514,-70.866077)"
             sodipodi:nodetypes="cc" />
        </g>
      </g>
    </g>
  </g>
</svg>
